; Engine configuration file.
; It's best edited using the editor UI and not directly,
; since the parameters that go here are not all obvious.
;
; Format:
;   [section] ; section goes between []
;   param=value ; assign values to parameters

config_version=5

[application]

config/name="Mike's Training"
run/main_scene="res://scenes/intro.tscn"
config/features=PackedStringArray("4.2", "Mobile")
boot_splash/image="res://objects/mike/mike.png"
config/icon="res://icon.png"

[autoload]

Global="*res://scripts/global.gd"

[display]

window/size/viewport_width=540
window/size/viewport_height=960
window/size/mode=3
window/stretch/mode="viewport"
window/handheld/orientation=1

[input]

ui_accept={
"deadzone": 0.5,
"events": [Object(InputEventKey,"resource_local_to_scene":false,"resource_name":"","device":0,"window_id":0,"alt_pressed":false,"shift_pressed":false,"ctrl_pressed":false,"meta_pressed":false,"pressed":false,"keycode":4194309,"physical_keycode":0,"key_label":0,"unicode":0,"echo":false,"script":null)
, Object(InputEventKey,"resource_local_to_scene":false,"resource_name":"","device":0,"window_id":0,"alt_pressed":false,"shift_pressed":false,"ctrl_pressed":false,"meta_pressed":false,"pressed":false,"keycode":4194310,"physical_keycode":0,"key_label":0,"unicode":0,"echo":false,"script":null)
, Object(InputEventKey,"resource_local_to_scene":false,"resource_name":"","device":0,"window_id":0,"alt_pressed":false,"shift_pressed":false,"ctrl_pressed":false,"meta_pressed":false,"pressed":false,"keycode":32,"physical_keycode":0,"key_label":0,"unicode":32,"echo":false,"script":null)
, Object(InputEventMouseButton,"resource_local_to_scene":false,"resource_name":"","device":-1,"window_id":0,"alt_pressed":false,"shift_pressed":false,"ctrl_pressed":false,"meta_pressed":false,"button_mask":1,"position":Vector2(282, 15),"global_position":Vector2(286, 56),"factor":1.0,"button_index":1,"canceled":false,"pressed":true,"double_click":false,"script":null)
]
}

[rendering]

textures/canvas_textures/default_texture_filter=0
renderer/rendering_method="mobile"
textures/vram_compression/import_etc2_astc=true
textures/lossless_compression/force_png=true
environment/defaults/default_clear_color=Color(0, 0, 0, 1)
